# lattice-align-phones exp/mono/decode_dev1/../final.mdl "ark:gunzip -c exp/mono/decode_dev1/lat.1.gz|" ark:- | lattice-to-ctm-conf --acoustic-scale=.25000000 --lm-scale=1.0 ark:- exp/mono/decode_dev1/scoring/4.1.ctm 
# Started at Mon Jun  5 11:27:48 CST 2017
#
lattice-to-ctm-conf --acoustic-scale=.25000000 --lm-scale=1.0 ark:- exp/mono/decode_dev1/scoring/4.1.ctm 
lattice-align-phones exp/mono/decode_dev1/../final.mdl 'ark:gunzip -c exp/mono/decode_dev1/lat.1.gz|' ark:- 
LOG (lattice-to-ctm-conf[5.1.77~1-8b9e8]:main():lattice-to-ctm-conf.cc:148) For utterance FC001_cw1, Bayes Risk 3.49124, avg. confidence per-word 0.855328
LOG (lattice-to-ctm-conf[5.1.77~1-8b9e8]:main():lattice-to-ctm-conf.cc:148) For utterance FC001_cw10, Bayes Risk 5.71662, avg. confidence per-word 0.868393
LOG (lattice-to-ctm-conf[5.1.77~1-8b9e8]:main():lattice-to-ctm-conf.cc:148) For utterance FC001_cw2, Bayes Risk 9.7863, avg. confidence per-word 0.819609
LOG (lattice-to-ctm-conf[5.1.77~1-8b9e8]:main():lattice-to-ctm-conf.cc:148) For utterance FC001_cw3, Bayes Risk 3.31545, avg. confidence per-word 0.88815
LOG (lattice-to-ctm-conf[5.1.77~1-8b9e8]:main():lattice-to-ctm-conf.cc:148) For utterance FC001_cw4, Bayes Risk 2.63362, avg. confidence per-word 0.928894
LOG (lattice-to-ctm-conf[5.1.77~1-8b9e8]:main():lattice-to-ctm-conf.cc:148) For utterance FC001_cw5, Bayes Risk 5.92514, avg. confidence per-word 0.897361
LOG (lattice-to-ctm-conf[5.1.77~1-8b9e8]:main():lattice-to-ctm-conf.cc:148) For utterance FC001_cw6, Bayes Risk 3.59483, avg. confidence per-word 0.965434
LOG (lattice-to-ctm-conf[5.1.77~1-8b9e8]:main():lattice-to-ctm-conf.cc:148) For utterance FC001_cw7, Bayes Risk 6.05563, avg. confidence per-word 0.820169
LOG (lattice-to-ctm-conf[5.1.77~1-8b9e8]:main():lattice-to-ctm-conf.cc:148) For utterance FC001_cw8, Bayes Risk 5.79277, avg. confidence per-word 0.889815
LOG (lattice-to-ctm-conf[5.1.77~1-8b9e8]:main():lattice-to-ctm-conf.cc:148) For utterance FC001_cw9, Bayes Risk 7.0245, avg. confidence per-word 0.874464
LOG (lattice-to-ctm-conf[5.1.77~1-8b9e8]:main():lattice-to-ctm-conf.cc:148) For utterance FC001_mp1, Bayes Risk 3.47848, avg. confidence per-word 0.944101
LOG (lattice-to-ctm-conf[5.1.77~1-8b9e8]:main():lattice-to-ctm-conf.cc:148) For utterance FC001_mp11, Bayes Risk 4.27338, avg. confidence per-word 0.9079
LOG (lattice-to-ctm-conf[5.1.77~1-8b9e8]:main():lattice-to-ctm-conf.cc:148) For utterance FC001_mp13, Bayes Risk 6.14468, avg. confidence per-word 0.857901
LOG (lattice-to-ctm-conf[5.1.77~1-8b9e8]:main():lattice-to-ctm-conf.cc:148) For utterance FC001_mp14, Bayes Risk 5.00152, avg. confidence per-word 0.891486
LOG (lattice-to-ctm-conf[5.1.77~1-8b9e8]:main():lattice-to-ctm-conf.cc:148) For utterance FC001_mp15, Bayes Risk 5.76956, avg. confidence per-word 0.8809
LOG (lattice-to-ctm-conf[5.1.77~1-8b9e8]:main():lattice-to-ctm-conf.cc:148) For utterance FC001_mp16, Bayes Risk 4.46869, avg. confidence per-word 0.915561
LOG (lattice-to-ctm-conf[5.1.77~1-8b9e8]:main():lattice-to-ctm-conf.cc:148) For utterance FC001_mp17, Bayes Risk 5.21672, avg. confidence per-word 0.857462
LOG (lattice-to-ctm-conf[5.1.77~1-8b9e8]:main():lattice-to-ctm-conf.cc:148) For utterance FC001_mp18, Bayes Risk 3.98138, avg. confidence per-word 0.914768
LOG (lattice-to-ctm-conf[5.1.77~1-8b9e8]:main():lattice-to-ctm-conf.cc:148) For utterance FC001_mp19, Bayes Risk 2.43592, avg. confidence per-word 0.961746
LOG (lattice-to-ctm-conf[5.1.77~1-8b9e8]:main():lattice-to-ctm-conf.cc:148) For utterance FC001_mp2, Bayes Risk 3.76888, avg. confidence per-word 0.890459
LOG (lattice-to-ctm-conf[5.1.77~1-8b9e8]:main():lattice-to-ctm-conf.cc:148) For utterance FC001_mp20, Bayes Risk 4.60911, avg. confidence per-word 0.902065
LOG (lattice-to-ctm-conf[5.1.77~1-8b9e8]:main():lattice-to-ctm-conf.cc:148) For utterance FC001_mp21, Bayes Risk 3.57694, avg. confidence per-word 0.923323
LOG (lattice-to-ctm-conf[5.1.77~1-8b9e8]:main():lattice-to-ctm-conf.cc:148) For utterance FC001_mp22, Bayes Risk 4.11045, avg. confidence per-word 0.899061
LOG (lattice-to-ctm-conf[5.1.77~1-8b9e8]:main():lattice-to-ctm-conf.cc:148) For utterance FC001_mp23, Bayes Risk 1.86509, avg. confidence per-word 0.949305
LOG (lattice-to-ctm-conf[5.1.77~1-8b9e8]:main():lattice-to-ctm-conf.cc:148) For utterance FC001_mp24, Bayes Risk 4.43384, avg. confidence per-word 0.868861
LOG (lattice-to-ctm-conf[5.1.77~1-8b9e8]:main():lattice-to-ctm-conf.cc:148) For utterance FC001_mp25, Bayes Risk 1.75068, avg. confidence per-word 0.967953
LOG (lattice-to-ctm-conf[5.1.77~1-8b9e8]:main():lattice-to-ctm-conf.cc:148) For utterance FC001_mp26, Bayes Risk 4.91456, avg. confidence per-word 0.896312
LOG (lattice-to-ctm-conf[5.1.77~1-8b9e8]:main():lattice-to-ctm-conf.cc:148) For utterance FC001_mp27, Bayes Risk 3.78647, avg. confidence per-word 0.943384
LOG (lattice-to-ctm-conf[5.1.77~1-8b9e8]:main():lattice-to-ctm-conf.cc:148) For utterance FC001_mp28, Bayes Risk 5.04206, avg. confidence per-word 0.893877
LOG (lattice-to-ctm-conf[5.1.77~1-8b9e8]:main():lattice-to-ctm-conf.cc:148) For utterance FC001_mp29, Bayes Risk 3.57194, avg. confidence per-word 0.962377
LOG (lattice-to-ctm-conf[5.1.77~1-8b9e8]:main():lattice-to-ctm-conf.cc:148) For utterance FC001_mp3, Bayes Risk 5.43554, avg. confidence per-word 0.865043
LOG (lattice-to-ctm-conf[5.1.77~1-8b9e8]:main():lattice-to-ctm-conf.cc:148) For utterance FC001_mp30, Bayes Risk 4.48123, avg. confidence per-word 0.913455
LOG (lattice-to-ctm-conf[5.1.77~1-8b9e8]:main():lattice-to-ctm-conf.cc:148) For utterance FC001_mp31, Bayes Risk 5.76983, avg. confidence per-word 0.877995
LOG (lattice-to-ctm-conf[5.1.77~1-8b9e8]:main():lattice-to-ctm-conf.cc:148) For utterance FC001_mp32, Bayes Risk 8.88101, avg. confidence per-word 0.839743
LOG (lattice-to-ctm-conf[5.1.77~1-8b9e8]:main():lattice-to-ctm-conf.cc:148) For utterance FC001_mp33, Bayes Risk 2.96088, avg. confidence per-word 0.925034
LOG (lattice-to-ctm-conf[5.1.77~1-8b9e8]:main():lattice-to-ctm-conf.cc:148) For utterance FC001_mp34, Bayes Risk 4.13625, avg. confidence per-word 0.886522
LOG (lattice-to-ctm-conf[5.1.77~1-8b9e8]:main():lattice-to-ctm-conf.cc:148) For utterance FC001_mp35, Bayes Risk 2.85771, avg. confidence per-word 0.947999
LOG (lattice-to-ctm-conf[5.1.77~1-8b9e8]:main():lattice-to-ctm-conf.cc:148) For utterance FC001_mp39, Bayes Risk 3.46649, avg. confidence per-word 0.905645
LOG (lattice-to-ctm-conf[5.1.77~1-8b9e8]:main():lattice-to-ctm-conf.cc:148) For utterance FC001_mp4, Bayes Risk 6.69606, avg. confidence per-word 0.835579
LOG (lattice-to-ctm-conf[5.1.77~1-8b9e8]:main():lattice-to-ctm-conf.cc:148) For utterance FC001_mp40, Bayes Risk 6.62503, avg. confidence per-word 0.851819
LOG (lattice-to-ctm-conf[5.1.77~1-8b9e8]:main():lattice-to-ctm-conf.cc:148) For utterance FC001_mp41, Bayes Risk 5.58718, avg. confidence per-word 0.892224
LOG (lattice-to-ctm-conf[5.1.77~1-8b9e8]:main():lattice-to-ctm-conf.cc:148) For utterance FC001_mp42, Bayes Risk 4.4967, avg. confidence per-word 0.896918
LOG (lattice-to-ctm-conf[5.1.77~1-8b9e8]:main():lattice-to-ctm-conf.cc:148) For utterance FC001_mp43, Bayes Risk 6.24821, avg. confidence per-word 0.85721
LOG (lattice-to-ctm-conf[5.1.77~1-8b9e8]:main():lattice-to-ctm-conf.cc:148) For utterance FC001_mp44, Bayes Risk 6.3645, avg. confidence per-word 0.906233
LOG (lattice-to-ctm-conf[5.1.77~1-8b9e8]:main():lattice-to-ctm-conf.cc:148) For utterance FC001_mp45, Bayes Risk 5.95073, avg. confidence per-word 0.875906
LOG (lattice-to-ctm-conf[5.1.77~1-8b9e8]:main():lattice-to-ctm-conf.cc:148) For utterance FC001_mp46, Bayes Risk 7.11242, avg. confidence per-word 0.828549
LOG (lattice-to-ctm-conf[5.1.77~1-8b9e8]:main():lattice-to-ctm-conf.cc:148) For utterance FC001_mp47, Bayes Risk 5.60835, avg. confidence per-word 0.883229
LOG (lattice-to-ctm-conf[5.1.77~1-8b9e8]:main():lattice-to-ctm-conf.cc:148) For utterance FC001_mp49, Bayes Risk 3.53035, avg. confidence per-word 0.952442
LOG (lattice-to-ctm-conf[5.1.77~1-8b9e8]:main():lattice-to-ctm-conf.cc:148) For utterance FC001_mp5, Bayes Risk 7.40014, avg. confidence per-word 0.845189
LOG (lattice-to-ctm-conf[5.1.77~1-8b9e8]:main():lattice-to-ctm-conf.cc:148) For utterance FC001_mp50, Bayes Risk 5.31339, avg. confidence per-word 0.899979
LOG (lattice-to-ctm-conf[5.1.77~1-8b9e8]:main():lattice-to-ctm-conf.cc:148) For utterance FC001_mp6, Bayes Risk 6.36074, avg. confidence per-word 0.833103
LOG (lattice-to-ctm-conf[5.1.77~1-8b9e8]:main():lattice-to-ctm-conf.cc:148) For utterance FC001_mp7, Bayes Risk 8.14874, avg. confidence per-word 0.781002
LOG (lattice-to-ctm-conf[5.1.77~1-8b9e8]:main():lattice-to-ctm-conf.cc:148) For utterance FC001_mp8, Bayes Risk 2.00309, avg. confidence per-word 0.936467
LOG (lattice-to-ctm-conf[5.1.77~1-8b9e8]:main():lattice-to-ctm-conf.cc:148) For utterance FC001_mp9, Bayes Risk 4.54269, avg. confidence per-word 0.89759
LOG (lattice-to-ctm-conf[5.1.77~1-8b9e8]:main():lattice-to-ctm-conf.cc:148) For utterance FC001_nw1, Bayes Risk 16.716, avg. confidence per-word 0.844378
LOG (lattice-to-ctm-conf[5.1.77~1-8b9e8]:main():lattice-to-ctm-conf.cc:148) For utterance FC001_nw2, Bayes Risk 17.4576, avg. confidence per-word 0.871809
LOG (lattice-to-ctm-conf[5.1.77~1-8b9e8]:main():lattice-to-ctm-conf.cc:148) For utterance FC001_ps1, Bayes Risk 7.19579, avg. confidence per-word 0.845054
LOG (lattice-to-ctm-conf[5.1.77~1-8b9e8]:main():lattice-to-ctm-conf.cc:148) For utterance FC001_ps10, Bayes Risk 13.415, avg. confidence per-word 0.814052
LOG (lattice-to-ctm-conf[5.1.77~1-8b9e8]:main():lattice-to-ctm-conf.cc:148) For utterance FC001_ps11, Bayes Risk 3.87955, avg. confidence per-word 0.906695
LOG (lattice-to-ctm-conf[5.1.77~1-8b9e8]:main():lattice-to-ctm-conf.cc:148) For utterance FC001_ps12, Bayes Risk 8.48451, avg. confidence per-word 0.901378
LOG (lattice-to-ctm-conf[5.1.77~1-8b9e8]:main():lattice-to-ctm-conf.cc:148) For utterance FC001_ps13, Bayes Risk 16.6173, avg. confidence per-word 0.807352
LOG (lattice-to-ctm-conf[5.1.77~1-8b9e8]:main():lattice-to-ctm-conf.cc:148) For utterance FC001_ps14, Bayes Risk 12.5468, avg. confidence per-word 0.798206
LOG (lattice-to-ctm-conf[5.1.77~1-8b9e8]:main():lattice-to-ctm-conf.cc:148) For utterance FC001_ps16, Bayes Risk 5.91074, avg. confidence per-word 0.875839
LOG (lattice-to-ctm-conf[5.1.77~1-8b9e8]:main():lattice-to-ctm-conf.cc:148) For utterance FC001_ps18, Bayes Risk 14.5111, avg. confidence per-word 0.850353
LOG (lattice-to-ctm-conf[5.1.77~1-8b9e8]:main():lattice-to-ctm-conf.cc:148) For utterance FC001_ps19, Bayes Risk 12.7836, avg. confidence per-word 0.881498
LOG (lattice-to-ctm-conf[5.1.77~1-8b9e8]:main():lattice-to-ctm-conf.cc:148) For utterance FC001_ps2, Bayes Risk 6.00541, avg. confidence per-word 0.849817
LOG (lattice-to-ctm-conf[5.1.77~1-8b9e8]:main():lattice-to-ctm-conf.cc:148) For utterance FC001_ps20, Bayes Risk 7.9686, avg. confidence per-word 0.847257
LOG (lattice-to-ctm-conf[5.1.77~1-8b9e8]:main():lattice-to-ctm-conf.cc:148) For utterance FC001_ps3, Bayes Risk 13.6423, avg. confidence per-word 0.812307
LOG (lattice-to-ctm-conf[5.1.77~1-8b9e8]:main():lattice-to-ctm-conf.cc:148) For utterance FC001_ps4, Bayes Risk 10.454, avg. confidence per-word 0.840128
LOG (lattice-to-ctm-conf[5.1.77~1-8b9e8]:main():lattice-to-ctm-conf.cc:148) For utterance FC001_ps5, Bayes Risk 9.20996, avg. confidence per-word 0.82288
LOG (lattice-to-ctm-conf[5.1.77~1-8b9e8]:main():lattice-to-ctm-conf.cc:148) For utterance FC001_ps6, Bayes Risk 8.08909, avg. confidence per-word 0.865039
LOG (lattice-to-ctm-conf[5.1.77~1-8b9e8]:main():lattice-to-ctm-conf.cc:148) For utterance FC001_ps7, Bayes Risk 8.29048, avg. confidence per-word 0.843762
LOG (lattice-to-ctm-conf[5.1.77~1-8b9e8]:main():lattice-to-ctm-conf.cc:148) For utterance FC001_ps9, Bayes Risk 13.0369, avg. confidence per-word 0.825323
LOG (lattice-to-ctm-conf[5.1.77~1-8b9e8]:main():lattice-to-ctm-conf.cc:148) For utterance FC002_cw1, Bayes Risk 3.04292, avg. confidence per-word 0.88069
LOG (lattice-to-ctm-conf[5.1.77~1-8b9e8]:main():lattice-to-ctm-conf.cc:148) For utterance FC002_cw10, Bayes Risk 10.4214, avg. confidence per-word 0.794462
LOG (lattice-to-ctm-conf[5.1.77~1-8b9e8]:main():lattice-to-ctm-conf.cc:148) For utterance FC002_cw2, Bayes Risk 9.06314, avg. confidence per-word 0.807706
LOG (lattice-to-ctm-conf[5.1.77~1-8b9e8]:main():lattice-to-ctm-conf.cc:148) For utterance FC002_cw3, Bayes Risk 3.93446, avg. confidence per-word 0.84622
LOG (lattice-to-ctm-conf[5.1.77~1-8b9e8]:main():lattice-to-ctm-conf.cc:148) For utterance FC002_cw4, Bayes Risk 5.40694, avg. confidence per-word 0.862203
LOG (lattice-to-ctm-conf[5.1.77~1-8b9e8]:main():lattice-to-ctm-conf.cc:148) For utterance FC002_cw5, Bayes Risk 6.83863, avg. confidence per-word 0.885218
LOG (lattice-to-ctm-conf[5.1.77~1-8b9e8]:main():lattice-to-ctm-conf.cc:148) For utterance FC002_cw6, Bayes Risk 6.11924, avg. confidence per-word 0.866694
LOG (lattice-to-ctm-conf[5.1.77~1-8b9e8]:main():lattice-to-ctm-conf.cc:148) For utterance FC002_cw7, Bayes Risk 5.31215, avg. confidence per-word 0.852889
LOG (lattice-to-ctm-conf[5.1.77~1-8b9e8]:main():lattice-to-ctm-conf.cc:148) For utterance FC002_cw8, Bayes Risk 5.07598, avg. confidence per-word 0.881908
LOG (lattice-to-ctm-conf[5.1.77~1-8b9e8]:main():lattice-to-ctm-conf.cc:148) For utterance FC002_cw9, Bayes Risk 9.04202, avg. confidence per-word 0.845042
LOG (lattice-to-ctm-conf[5.1.77~1-8b9e8]:main():lattice-to-ctm-conf.cc:148) For utterance FC002_mp1, Bayes Risk 7.43486, avg. confidence per-word 0.817553
LOG (lattice-to-ctm-conf[5.1.77~1-8b9e8]:main():lattice-to-ctm-conf.cc:148) For utterance FC002_mp11, Bayes Risk 5.80098, avg. confidence per-word 0.873306
LOG (lattice-to-ctm-conf[5.1.77~1-8b9e8]:main():lattice-to-ctm-conf.cc:148) For utterance FC002_mp12, Bayes Risk 4.8471, avg. confidence per-word 0.883183
LOG (lattice-to-ctm-conf[5.1.77~1-8b9e8]:main():lattice-to-ctm-conf.cc:148) For utterance FC002_mp13, Bayes Risk 3.04828, avg. confidence per-word 0.915225
LOG (lattice-to-ctm-conf[5.1.77~1-8b9e8]:main():lattice-to-ctm-conf.cc:148) For utterance FC002_mp14, Bayes Risk 5.40155, avg. confidence per-word 0.865039
LOG (lattice-to-ctm-conf[5.1.77~1-8b9e8]:main():lattice-to-ctm-conf.cc:148) For utterance FC002_mp15, Bayes Risk 4.18355, avg. confidence per-word 0.898918
LOG (lattice-to-ctm-conf[5.1.77~1-8b9e8]:main():lattice-to-ctm-conf.cc:148) For utterance FC002_mp16, Bayes Risk 5.1322, avg. confidence per-word 0.865713
LOG (lattice-to-ctm-conf[5.1.77~1-8b9e8]:main():lattice-to-ctm-conf.cc:148) For utterance FC002_mp17, Bayes Risk 2.5133, avg. confidence per-word 0.914973
LOG (lattice-to-ctm-conf[5.1.77~1-8b9e8]:main():lattice-to-ctm-conf.cc:148) For utterance FC002_mp18, Bayes Risk 2.62493, avg. confidence per-word 0.932879
LOG (lattice-to-ctm-conf[5.1.77~1-8b9e8]:main():lattice-to-ctm-conf.cc:148) For utterance FC002_mp19, Bayes Risk 3.03008, avg. confidence per-word 0.889511
LOG (lattice-to-ctm-conf[5.1.77~1-8b9e8]:main():lattice-to-ctm-conf.cc:148) For utterance FC002_mp2, Bayes Risk 7.55974, avg. confidence per-word 0.814224
LOG (lattice-to-ctm-conf[5.1.77~1-8b9e8]:main():lattice-to-ctm-conf.cc:148) For utterance FC002_mp20, Bayes Risk 4.86019, avg. confidence per-word 0.859365
LOG (lattice-to-ctm-conf[5.1.77~1-8b9e8]:main():lattice-to-ctm-conf.cc:148) For utterance FC002_mp21, Bayes Risk 3.93565, avg. confidence per-word 0.940438
LOG (lattice-to-ctm-conf[5.1.77~1-8b9e8]:main():lattice-to-ctm-conf.cc:148) For utterance FC002_mp22, Bayes Risk 3.71685, avg. confidence per-word 0.898492
LOG (lattice-to-ctm-conf[5.1.77~1-8b9e8]:main():lattice-to-ctm-conf.cc:148) For utterance FC002_mp23, Bayes Risk 4.4571, avg. confidence per-word 0.886803
LOG (lattice-to-ctm-conf[5.1.77~1-8b9e8]:main():lattice-to-ctm-conf.cc:148) For utterance FC002_mp24, Bayes Risk 5.71094, avg. confidence per-word 0.890631
LOG (lattice-to-ctm-conf[5.1.77~1-8b9e8]:main():lattice-to-ctm-conf.cc:148) For utterance FC002_mp25, Bayes Risk 6.63803, avg. confidence per-word 0.851767
LOG (lattice-to-ctm-conf[5.1.77~1-8b9e8]:main():lattice-to-ctm-conf.cc:148) For utterance FC002_mp26, Bayes Risk 6.5671, avg. confidence per-word 0.840741
LOG (lattice-to-ctm-conf[5.1.77~1-8b9e8]:main():lattice-to-ctm-conf.cc:148) For utterance FC002_mp27, Bayes Risk 3.58831, avg. confidence per-word 0.92226
LOG (lattice-to-ctm-conf[5.1.77~1-8b9e8]:main():lattice-to-ctm-conf.cc:148) For utterance FC002_mp28, Bayes Risk 4.60032, avg. confidence per-word 0.862809
LOG (lattice-to-ctm-conf[5.1.77~1-8b9e8]:main():lattice-to-ctm-conf.cc:148) For utterance FC002_mp29, Bayes Risk 6.3154, avg. confidence per-word 0.828361
LOG (lattice-to-ctm-conf[5.1.77~1-8b9e8]:main():lattice-to-ctm-conf.cc:148) For utterance FC002_mp3, Bayes Risk 8.88925, avg. confidence per-word 0.794924
LOG (lattice-to-ctm-conf[5.1.77~1-8b9e8]:main():lattice-to-ctm-conf.cc:148) For utterance FC002_mp30, Bayes Risk 3.21429, avg. confidence per-word 0.92659
LOG (lattice-to-ctm-conf[5.1.77~1-8b9e8]:main():lattice-to-ctm-conf.cc:148) For utterance FC002_mp31, Bayes Risk 5.36117, avg. confidence per-word 0.872603
LOG (lattice-to-ctm-conf[5.1.77~1-8b9e8]:main():lattice-to-ctm-conf.cc:148) For utterance FC002_mp32, Bayes Risk 7.47865, avg. confidence per-word 0.82271
LOG (lattice-to-ctm-conf[5.1.77~1-8b9e8]:main():lattice-to-ctm-conf.cc:148) For utterance FC002_mp33, Bayes Risk 2.03575, avg. confidence per-word 0.927018
LOG (lattice-to-ctm-conf[5.1.77~1-8b9e8]:main():lattice-to-ctm-conf.cc:148) For utterance FC002_mp34, Bayes Risk 5.35579, avg. confidence per-word 0.886727
LOG (lattice-to-ctm-conf[5.1.77~1-8b9e8]:main():lattice-to-ctm-conf.cc:148) For utterance FC002_mp36, Bayes Risk 5.69775, avg. confidence per-word 0.881384
LOG (lattice-to-ctm-conf[5.1.77~1-8b9e8]:main():lattice-to-ctm-conf.cc:148) For utterance FC002_mp39, Bayes Risk 6.39129, avg. confidence per-word 0.870095
LOG (lattice-to-ctm-conf[5.1.77~1-8b9e8]:main():lattice-to-ctm-conf.cc:148) For utterance FC002_mp4, Bayes Risk 8.4874, avg. confidence per-word 0.778183
LOG (lattice-to-ctm-conf[5.1.77~1-8b9e8]:main():lattice-to-ctm-conf.cc:148) For utterance FC002_mp40, Bayes Risk 7.81682, avg. confidence per-word 0.826053
LOG (lattice-to-ctm-conf[5.1.77~1-8b9e8]:main():lattice-to-ctm-conf.cc:148) For utterance FC002_mp41, Bayes Risk 4.96936, avg. confidence per-word 0.873593
LOG (lattice-to-ctm-conf[5.1.77~1-8b9e8]:main():lattice-to-ctm-conf.cc:148) For utterance FC002_mp42, Bayes Risk 7.37358, avg. confidence per-word 0.825471
LOG (lattice-to-ctm-conf[5.1.77~1-8b9e8]:main():lattice-to-ctm-conf.cc:148) For utterance FC002_mp43, Bayes Risk 7.27361, avg. confidence per-word 0.835543
LOG (lattice-to-ctm-conf[5.1.77~1-8b9e8]:main():lattice-to-ctm-conf.cc:148) For utterance FC002_mp44, Bayes Risk 7.59401, avg. confidence per-word 0.866017
LOG (lattice-to-ctm-conf[5.1.77~1-8b9e8]:main():lattice-to-ctm-conf.cc:148) For utterance FC002_mp45, Bayes Risk 9.19522, avg. confidence per-word 0.845221
LOG (lattice-to-ctm-conf[5.1.77~1-8b9e8]:main():lattice-to-ctm-conf.cc:148) For utterance FC002_mp46, Bayes Risk 5.68161, avg. confidence per-word 0.888012
LOG (lattice-to-ctm-conf[5.1.77~1-8b9e8]:main():lattice-to-ctm-conf.cc:148) For utterance FC002_mp47, Bayes Risk 5.28645, avg. confidence per-word 0.865353
LOG (lattice-to-ctm-conf[5.1.77~1-8b9e8]:main():lattice-to-ctm-conf.cc:148) For utterance FC002_mp49, Bayes Risk 4.37073, avg. confidence per-word 0.931907
LOG (lattice-to-ctm-conf[5.1.77~1-8b9e8]:main():lattice-to-ctm-conf.cc:148) For utterance FC002_mp5, Bayes Risk 9.22738, avg. confidence per-word 0.832176
LOG (lattice-to-ctm-conf[5.1.77~1-8b9e8]:main():lattice-to-ctm-conf.cc:148) For utterance FC002_mp50, Bayes Risk 3.17617, avg. confidence per-word 0.921585
LOG (lattice-to-ctm-conf[5.1.77~1-8b9e8]:main():lattice-to-ctm-conf.cc:148) For utterance FC002_mp6, Bayes Risk 6.98849, avg. confidence per-word 0.857763
LOG (lattice-to-ctm-conf[5.1.77~1-8b9e8]:main():lattice-to-ctm-conf.cc:148) For utterance FC002_mp7, Bayes Risk 7.64237, avg. confidence per-word 0.800347
LOG (lattice-to-ctm-conf[5.1.77~1-8b9e8]:main():lattice-to-ctm-conf.cc:148) For utterance FC002_mp8, Bayes Risk 6.38978, avg. confidence per-word 0.817722
LOG (lattice-to-ctm-conf[5.1.77~1-8b9e8]:main():lattice-to-ctm-conf.cc:148) For utterance FC002_mp9, Bayes Risk 10.9383, avg. confidence per-word 0.720478
LOG (lattice-to-ctm-conf[5.1.77~1-8b9e8]:main():lattice-to-ctm-conf.cc:148) For utterance FC002_nw4, Bayes Risk 7.97329, avg. confidence per-word 0.857173
LOG (lattice-to-ctm-conf[5.1.77~1-8b9e8]:main():lattice-to-ctm-conf.cc:148) For utterance FC002_nw6, Bayes Risk 18.5978, avg. confidence per-word 0.830681
LOG (lattice-to-ctm-conf[5.1.77~1-8b9e8]:main():lattice-to-ctm-conf.cc:148) For utterance FC002_ps11, Bayes Risk 3.80207, avg. confidence per-word 0.906927
LOG (lattice-to-ctm-conf[5.1.77~1-8b9e8]:main():lattice-to-ctm-conf.cc:148) For utterance FC002_ps12, Bayes Risk 12.2946, avg. confidence per-word 0.861132
LOG (lattice-to-ctm-conf[5.1.77~1-8b9e8]:main():lattice-to-ctm-conf.cc:148) For utterance FC002_ps13, Bayes Risk 14.6047, avg. confidence per-word 0.800899
LOG (lattice-to-ctm-conf[5.1.77~1-8b9e8]:main():lattice-to-ctm-conf.cc:148) For utterance FC002_ps14, Bayes Risk 8.2453, avg. confidence per-word 0.845287
LOG (lattice-to-ctm-conf[5.1.77~1-8b9e8]:main():lattice-to-ctm-conf.cc:148) For utterance FC002_ps16, Bayes Risk 5.19758, avg. confidence per-word 0.88915
LOG (lattice-to-ctm-conf[5.1.77~1-8b9e8]:main():lattice-to-ctm-conf.cc:148) For utterance FC002_ps18, Bayes Risk 15.531, avg. confidence per-word 0.852721
LOG (lattice-to-ctm-conf[5.1.77~1-8b9e8]:main():lattice-to-ctm-conf.cc:148) For utterance FC002_ps19, Bayes Risk 17.793, avg. confidence per-word 0.830773
LOG (lattice-to-ctm-conf[5.1.77~1-8b9e8]:main():lattice-to-ctm-conf.cc:148) For utterance FC002_ps2, Bayes Risk 8.14884, avg. confidence per-word 0.808223
LOG (lattice-to-ctm-conf[5.1.77~1-8b9e8]:main():lattice-to-ctm-conf.cc:148) For utterance FC002_ps20, Bayes Risk 9.36667, avg. confidence per-word 0.833566
LOG (lattice-to-ctm-conf[5.1.77~1-8b9e8]:main():lattice-to-ctm-conf.cc:148) For utterance FC002_ps3, Bayes Risk 9.22027, avg. confidence per-word 0.829764
LOG (lattice-to-ctm-conf[5.1.77~1-8b9e8]:main():lattice-to-ctm-conf.cc:148) For utterance FC002_ps4, Bayes Risk 10.4843, avg. confidence per-word 0.820641
LOG (lattice-to-ctm-conf[5.1.77~1-8b9e8]:main():lattice-to-ctm-conf.cc:148) For utterance FC002_ps5, Bayes Risk 9.33131, avg. confidence per-word 0.805245
LOG (lattice-to-ctm-conf[5.1.77~1-8b9e8]:main():lattice-to-ctm-conf.cc:148) For utterance FC002_ps7, Bayes Risk 10.5197, avg. confidence per-word 0.780231
LOG (lattice-to-ctm-conf[5.1.77~1-8b9e8]:main():lattice-to-ctm-conf.cc:148) For utterance FC002_ps9, Bayes Risk 17.6829, avg. confidence per-word 0.814909
LOG (lattice-to-ctm-conf[5.1.77~1-8b9e8]:main():lattice-to-ctm-conf.cc:148) For utterance FM001_cw1, Bayes Risk 2.70821, avg. confidence per-word 0.902926
LOG (lattice-to-ctm-conf[5.1.77~1-8b9e8]:main():lattice-to-ctm-conf.cc:148) For utterance FM001_cw10, Bayes Risk 6.20627, avg. confidence per-word 0.863331
LOG (lattice-to-ctm-conf[5.1.77~1-8b9e8]:main():lattice-to-ctm-conf.cc:148) For utterance FM001_cw2, Bayes Risk 5.29265, avg. confidence per-word 0.887187
LOG (lattice-to-ctm-conf[5.1.77~1-8b9e8]:main():lattice-to-ctm-conf.cc:148) For utterance FM001_cw3, Bayes Risk 3.82789, avg. confidence per-word 0.843403
LOG (lattice-to-ctm-conf[5.1.77~1-8b9e8]:main():lattice-to-ctm-conf.cc:148) For utterance FM001_cw4, Bayes Risk 4.11254, avg. confidence per-word 0.889681
LOG (lattice-to-ctm-conf[5.1.77~1-8b9e8]:main():lattice-to-ctm-conf.cc:148) For utterance FM001_cw5, Bayes Risk 8.48068, avg. confidence per-word 0.834559
LOG (lattice-to-ctm-conf[5.1.77~1-8b9e8]:main():lattice-to-ctm-conf.cc:148) For utterance FM001_cw6, Bayes Risk 6.14316, avg. confidence per-word 0.862763
LOG (lattice-to-ctm-conf[5.1.77~1-8b9e8]:main():lattice-to-ctm-conf.cc:148) For utterance FM001_cw7, Bayes Risk 3.52341, avg. confidence per-word 0.905438
LOG (lattice-to-ctm-conf[5.1.77~1-8b9e8]:main():lattice-to-ctm-conf.cc:148) For utterance FM001_cw8, Bayes Risk 3.46892, avg. confidence per-word 0.923169
LOG (lattice-to-ctm-conf[5.1.77~1-8b9e8]:main():lattice-to-ctm-conf.cc:148) For utterance FM001_cw9, Bayes Risk 8.93701, avg. confidence per-word 0.812409
LOG (lattice-to-ctm-conf[5.1.77~1-8b9e8]:main():lattice-to-ctm-conf.cc:148) For utterance FM001_mp1, Bayes Risk 7.21138, avg. confidence per-word 0.831156
LOG (lattice-to-ctm-conf[5.1.77~1-8b9e8]:main():lattice-to-ctm-conf.cc:148) For utterance FM001_mp11, Bayes Risk 4.96115, avg. confidence per-word 0.882588
LOG (lattice-to-ctm-conf[5.1.77~1-8b9e8]:main():lattice-to-ctm-conf.cc:148) For utterance FM001_mp12, Bayes Risk 4.0641, avg. confidence per-word 0.906652
LOG (lattice-to-ctm-conf[5.1.77~1-8b9e8]:main():lattice-to-ctm-conf.cc:148) For utterance FM001_mp13, Bayes Risk 4.83875, avg. confidence per-word 0.874544
LOG (lattice-to-ctm-conf[5.1.77~1-8b9e8]:main():lattice-to-ctm-conf.cc:148) For utterance FM001_mp14, Bayes Risk 5.04773, avg. confidence per-word 0.892585
LOG (lattice-to-ctm-conf[5.1.77~1-8b9e8]:main():lattice-to-ctm-conf.cc:148) For utterance FM001_mp15, Bayes Risk 5.19964, avg. confidence per-word 0.892519
LOG (lattice-to-ctm-conf[5.1.77~1-8b9e8]:main():lattice-to-ctm-conf.cc:148) For utterance FM001_mp16, Bayes Risk 4.38263, avg. confidence per-word 0.873082
LOG (lattice-to-ctm-conf[5.1.77~1-8b9e8]:main():lattice-to-ctm-conf.cc:148) For utterance FM001_mp17, Bayes Risk 3.89307, avg. confidence per-word 0.898717
LOG (lattice-to-ctm-conf[5.1.77~1-8b9e8]:main():lattice-to-ctm-conf.cc:148) For utterance FM001_mp18, Bayes Risk 3.69806, avg. confidence per-word 0.875283
LOG (lattice-to-ctm-conf[5.1.77~1-8b9e8]:main():lattice-to-ctm-conf.cc:148) For utterance FM001_mp19, Bayes Risk 4.84839, avg. confidence per-word 0.835425
LOG (lattice-to-ctm-conf[5.1.77~1-8b9e8]:main():lattice-to-ctm-conf.cc:148) For utterance FM001_mp2, Bayes Risk 5.95561, avg. confidence per-word 0.851195
LOG (lattice-to-ctm-conf[5.1.77~1-8b9e8]:main():lattice-to-ctm-conf.cc:148) For utterance FM001_mp20, Bayes Risk 5.73837, avg. confidence per-word 0.885163
LOG (lattice-to-ctm-conf[5.1.77~1-8b9e8]:main():lattice-to-ctm-conf.cc:148) For utterance FM001_mp21, Bayes Risk 6.56291, avg. confidence per-word 0.826092
LOG (lattice-to-ctm-conf[5.1.77~1-8b9e8]:main():lattice-to-ctm-conf.cc:148) For utterance FM001_mp22, Bayes Risk 3.05787, avg. confidence per-word 0.932718
LOG (lattice-to-ctm-conf[5.1.77~1-8b9e8]:main():lattice-to-ctm-conf.cc:148) For utterance FM001_mp23, Bayes Risk 2.46995, avg. confidence per-word 0.945987
LOG (lattice-to-ctm-conf[5.1.77~1-8b9e8]:main():lattice-to-ctm-conf.cc:148) For utterance FM001_mp24, Bayes Risk 3.73004, avg. confidence per-word 0.889899
LOG (lattice-to-ctm-conf[5.1.77~1-8b9e8]:main():lattice-to-ctm-conf.cc:148) For utterance FM001_mp25, Bayes Risk 4.21478, avg. confidence per-word 0.879145
LOG (lattice-to-ctm-conf[5.1.77~1-8b9e8]:main():lattice-to-ctm-conf.cc:148) For utterance FM001_mp26, Bayes Risk 2.80906, avg. confidence per-word 0.959493
LOG (lattice-to-ctm-conf[5.1.77~1-8b9e8]:main():lattice-to-ctm-conf.cc:148) For utterance FM001_mp27, Bayes Risk 3.92909, avg. confidence per-word 0.899294
LOG (lattice-to-ctm-conf[5.1.77~1-8b9e8]:main():lattice-to-ctm-conf.cc:148) For utterance FM001_mp28, Bayes Risk 4.32397, avg. confidence per-word 0.879342
LOG (lattice-to-ctm-conf[5.1.77~1-8b9e8]:main():lattice-to-ctm-conf.cc:148) For utterance FM001_mp29, Bayes Risk 5.30715, avg. confidence per-word 0.872961
LOG (lattice-to-ctm-conf[5.1.77~1-8b9e8]:main():lattice-to-ctm-conf.cc:148) For utterance FM001_mp3, Bayes Risk 4.30366, avg. confidence per-word 0.891064
LOG (lattice-to-ctm-conf[5.1.77~1-8b9e8]:main():lattice-to-ctm-conf.cc:148) For utterance FM001_mp30, Bayes Risk 5.00001, avg. confidence per-word 0.876666
LOG (lattice-to-ctm-conf[5.1.77~1-8b9e8]:main():lattice-to-ctm-conf.cc:148) For utterance FM001_mp31, Bayes Risk 5.4532, avg. confidence per-word 0.914451
LOG (lattice-to-ctm-conf[5.1.77~1-8b9e8]:main():lattice-to-ctm-conf.cc:148) For utterance FM001_mp32, Bayes Risk 6.74362, avg. confidence per-word 0.829944
LOG (lattice-to-ctm-conf[5.1.77~1-8b9e8]:main():lattice-to-ctm-conf.cc:148) For utterance FM001_mp33, Bayes Risk 1.99995, avg. confidence per-word 0.928167
LOG (lattice-to-ctm-conf[5.1.77~1-8b9e8]:main():lattice-to-ctm-conf.cc:148) For utterance FM001_mp34, Bayes Risk 3.53097, avg. confidence per-word 0.871621
LOG (lattice-to-ctm-conf[5.1.77~1-8b9e8]:main():lattice-to-ctm-conf.cc:148) For utterance FM001_mp35, Bayes Risk 1.83479, avg. confidence per-word 0.963534
LOG (lattice-to-ctm-conf[5.1.77~1-8b9e8]:main():lattice-to-ctm-conf.cc:148) For utterance FM001_mp36, Bayes Risk 5.11853, avg. confidence per-word 0.891922
LOG (lattice-to-ctm-conf[5.1.77~1-8b9e8]:main():lattice-to-ctm-conf.cc:148) For utterance FM001_mp37, Bayes Risk 2.9163, avg. confidence per-word 0.912545
LOG (lattice-to-ctm-conf[5.1.77~1-8b9e8]:main():lattice-to-ctm-conf.cc:148) For utterance FM001_mp38, Bayes Risk 9.21987, avg. confidence per-word 0.783227
LOG (lattice-to-ctm-conf[5.1.77~1-8b9e8]:main():lattice-to-ctm-conf.cc:148) For utterance FM001_mp39, Bayes Risk 3.57414, avg. confidence per-word 0.895802
LOG (lattice-to-ctm-conf[5.1.77~1-8b9e8]:main():lattice-to-ctm-conf.cc:148) For utterance FM001_mp4, Bayes Risk 4.59151, avg. confidence per-word 0.89124
LOG (lattice-to-ctm-conf[5.1.77~1-8b9e8]:main():lattice-to-ctm-conf.cc:148) For utterance FM001_mp40, Bayes Risk 4.65153, avg. confidence per-word 0.863391
LOG (lattice-to-ctm-conf[5.1.77~1-8b9e8]:main():lattice-to-ctm-conf.cc:148) For utterance FM001_mp41, Bayes Risk 5.47408, avg. confidence per-word 0.867319
LOG (lattice-to-ctm-conf[5.1.77~1-8b9e8]:main():lattice-to-ctm-conf.cc:148) For utterance FM001_mp42, Bayes Risk 6.57799, avg. confidence per-word 0.849106
LOG (lattice-to-ctm-conf[5.1.77~1-8b9e8]:main():lattice-to-ctm-conf.cc:148) For utterance FM001_mp43, Bayes Risk 3.88067, avg. confidence per-word 0.915603
LOG (lattice-to-ctm-conf[5.1.77~1-8b9e8]:main():lattice-to-ctm-conf.cc:148) For utterance FM001_mp44, Bayes Risk 7.42466, avg. confidence per-word 0.853737
LOG (lattice-to-ctm-conf[5.1.77~1-8b9e8]:main():lattice-to-ctm-conf.cc:148) For utterance FM001_mp45, Bayes Risk 6.6274, avg. confidence per-word 0.848253
LOG (lattice-to-ctm-conf[5.1.77~1-8b9e8]:main():lattice-to-ctm-conf.cc:148) For utterance FM001_mp46, Bayes Risk 6.14719, avg. confidence per-word 0.847398
LOG (lattice-to-ctm-conf[5.1.77~1-8b9e8]:main():lattice-to-ctm-conf.cc:148) For utterance FM001_mp47, Bayes Risk 2.44301, avg. confidence per-word 0.924445
LOG (lattice-to-ctm-conf[5.1.77~1-8b9e8]:main():lattice-to-ctm-conf.cc:148) For utterance FM001_mp48, Bayes Risk 4.42801, avg. confidence per-word 0.898231
LOG (lattice-to-ctm-conf[5.1.77~1-8b9e8]:main():lattice-to-ctm-conf.cc:148) For utterance FM001_mp49, Bayes Risk 1.30621, avg. confidence per-word 0.966743
LOG (lattice-to-ctm-conf[5.1.77~1-8b9e8]:main():lattice-to-ctm-conf.cc:148) For utterance FM001_mp5, Bayes Risk 2.12635, avg. confidence per-word 0.958241
LOG (lattice-to-ctm-conf[5.1.77~1-8b9e8]:main():lattice-to-ctm-conf.cc:148) For utterance FM001_mp50, Bayes Risk 3.44196, avg. confidence per-word 0.92082
LOG (lattice-to-ctm-conf[5.1.77~1-8b9e8]:main():lattice-to-ctm-conf.cc:148) For utterance FM001_mp6, Bayes Risk 5.90441, avg. confidence per-word 0.825386
LOG (lattice-to-ctm-conf[5.1.77~1-8b9e8]:main():lattice-to-ctm-conf.cc:148) For utterance FM001_mp7, Bayes Risk 5.31201, avg. confidence per-word 0.860578
LOG (lattice-to-ctm-conf[5.1.77~1-8b9e8]:main():lattice-to-ctm-conf.cc:148) For utterance FM001_mp8, Bayes Risk 3.02401, avg. confidence per-word 0.934516
LOG (lattice-to-ctm-conf[5.1.77~1-8b9e8]:main():lattice-to-ctm-conf.cc:148) For utterance FM001_mp9, Bayes Risk 6.47354, avg. confidence per-word 0.850336
LOG (lattice-to-ctm-conf[5.1.77~1-8b9e8]:main():lattice-to-ctm-conf.cc:148) For utterance FM001_nw2, Bayes Risk 17.4459, avg. confidence per-word 0.855834
LOG (lattice-to-ctm-conf[5.1.77~1-8b9e8]:main():lattice-to-ctm-conf.cc:148) For utterance FM001_nw3, Bayes Risk 16.4015, avg. confidence per-word 0.86664
LOG (lattice-to-ctm-conf[5.1.77~1-8b9e8]:main():lattice-to-ctm-conf.cc:148) For utterance FM001_nw5, Bayes Risk 16.8141, avg. confidence per-word 0.78278
LOG (lattice-to-ctm-conf[5.1.77~1-8b9e8]:main():lattice-to-ctm-conf.cc:148) For utterance FM001_nw6, Bayes Risk 15.448, avg. confidence per-word 0.814683
LOG (lattice-to-ctm-conf[5.1.77~1-8b9e8]:main():lattice-to-ctm-conf.cc:148) For utterance FM001_ps1, Bayes Risk 5.52438, avg. confidence per-word 0.866122
LOG (lattice-to-ctm-conf[5.1.77~1-8b9e8]:main():lattice-to-ctm-conf.cc:148) For utterance FM001_ps10, Bayes Risk 10.3183, avg. confidence per-word 0.814468
LOG (lattice-to-ctm-conf[5.1.77~1-8b9e8]:main():lattice-to-ctm-conf.cc:148) For utterance FM001_ps11, Bayes Risk 4.9034, avg. confidence per-word 0.891223
LOG (lattice-to-ctm-conf[5.1.77~1-8b9e8]:main():lattice-to-ctm-conf.cc:148) For utterance FM001_ps12, Bayes Risk 9.10011, avg. confidence per-word 0.87597
LOG (lattice-to-ctm-conf[5.1.77~1-8b9e8]:main():lattice-to-ctm-conf.cc:148) For utterance FM001_ps13, Bayes Risk 9.48142, avg. confidence per-word 0.83276
LOG (lattice-to-ctm-conf[5.1.77~1-8b9e8]:main():lattice-to-ctm-conf.cc:148) For utterance FM001_ps14, Bayes Risk 7.87733, avg. confidence per-word 0.852049
LOG (lattice-to-ctm-conf[5.1.77~1-8b9e8]:main():lattice-to-ctm-conf.cc:148) For utterance FM001_ps15, Bayes Risk 8.20521, avg. confidence per-word 0.845442
LOG (lattice-to-ctm-conf[5.1.77~1-8b9e8]:main():lattice-to-ctm-conf.cc:148) For utterance FM001_ps16, Bayes Risk 6.65902, avg. confidence per-word 0.835837
LOG (lattice-to-ctm-conf[5.1.77~1-8b9e8]:main():lattice-to-ctm-conf.cc:148) For utterance FM001_ps17, Bayes Risk 6.67615, avg. confidence per-word 0.857888
LOG (lattice-to-ctm-conf[5.1.77~1-8b9e8]:main():lattice-to-ctm-conf.cc:148) For utterance FM001_ps18, Bayes Risk 15.2282, avg. confidence per-word 0.826137
LOG (lattice-to-ctm-conf[5.1.77~1-8b9e8]:main():lattice-to-ctm-conf.cc:148) For utterance FM001_ps19, Bayes Risk 11.5285, avg. confidence per-word 0.874501
LOG (lattice-to-ctm-conf[5.1.77~1-8b9e8]:main():lattice-to-ctm-conf.cc:148) For utterance FM001_ps2, Bayes Risk 7.66131, avg. confidence per-word 0.768123
LOG (lattice-to-ctm-conf[5.1.77~1-8b9e8]:main():lattice-to-ctm-conf.cc:148) For utterance FM001_ps20, Bayes Risk 8.97309, avg. confidence per-word 0.81069
LOG (lattice-to-ctm-conf[5.1.77~1-8b9e8]:main():lattice-to-ctm-conf.cc:148) For utterance FM001_ps3, Bayes Risk 12.2151, avg. confidence per-word 0.848779
LOG (lattice-to-ctm-conf[5.1.77~1-8b9e8]:main():lattice-to-ctm-conf.cc:148) For utterance FM001_ps4, Bayes Risk 11.6858, avg. confidence per-word 0.817727
LOG (lattice-to-ctm-conf[5.1.77~1-8b9e8]:main():lattice-to-ctm-conf.cc:148) For utterance FM001_ps5, Bayes Risk 8.28131, avg. confidence per-word 0.825011
LOG (lattice-to-ctm-conf[5.1.77~1-8b9e8]:main():lattice-to-ctm-conf.cc:148) For utterance FM001_ps6, Bayes Risk 5.3803, avg. confidence per-word 0.904142
LOG (lattice-to-ctm-conf[5.1.77~1-8b9e8]:main():lattice-to-ctm-conf.cc:148) For utterance FM001_ps7, Bayes Risk 8.40324, avg. confidence per-word 0.837891
LOG (lattice-to-ctm-conf[5.1.77~1-8b9e8]:main():lattice-to-ctm-conf.cc:148) For utterance FM001_ps8, Bayes Risk 6.40544, avg. confidence per-word 0.902834
LOG (lattice-align-phones[5.1.77~1-8b9e8]:main():lattice-align-phones.cc:104) Successfully aligned 227 lattices; 0 had errors.
LOG (lattice-to-ctm-conf[5.1.77~1-8b9e8]:main():lattice-to-ctm-conf.cc:148) For utterance FM001_ps9, Bayes Risk 12.0561, avg. confidence per-word 0.835129
LOG (lattice-to-ctm-conf[5.1.77~1-8b9e8]:main():lattice-to-ctm-conf.cc:157) Done 227 lattices.
LOG (lattice-to-ctm-conf[5.1.77~1-8b9e8]:main():lattice-to-ctm-conf.cc:158) Overall average Bayes Risk per sentence is 6.5847 and per word, 0.185335
# Accounting: time=44 threads=1
# Ended (code 0) at Mon Jun  5 11:28:32 CST 2017, elapsed time 44 seconds
